Exercise A - find the minimum by Newton minimization
The minimum in the Rosenbrock function with startvalues (0,0) is:
x=1
y=1
The number of steps is: 14
The minimum in the Himmelblau function with startvalues (-5,-3) is:
x=-3.77931
y=-3.28319
The number of steps is: 5

Exercise B

The quasiNewton method gives following results:
The minimum in the Rosenbrock function with startvalues (0,0) is:
x=0.999912
y=0.999823
The number of steps is: 6176
 You see, that the number of steps with the Quasi Newton method is much bigger than for the newton minimization
The minimum in the Himmelblau function with startvalues (-5,-3) is:
x=-3.77931
y=-3.28319
The number of steps is: 8, which is more than for the newton minimization
The result of the Roots-exercise was the minimum of the Rosenbrock function with 145 steps. This is higher than the Newton metod, but lower then the Quasi-Newton-metod. In the Roots execise, the minimum of the Himmelblau function was found in 5 steps. Det er lower than for both the Newton og Quasi Newton metod.

Exercise B iv:
The Quasi-Newton-metoden is used to find the best fit to experimental data with the function A*exp(-i/T)+B. Startvalue is A=T=B=1.
The fitting parameters are as follows:
A=3.55702 	 T=3.20544 	 B=1.23192 	 steps=22


#x values and fitted function values in the interval t=0 to t=10:
 #t 	 f(t)
0 	 4.78894
0.05 	 4.73389
0.1 	 4.67968
0.15 	 4.62632
0.2 	 4.57379
0.25 	 4.52206
0.3 	 4.47114
0.35 	 4.421
0.4 	 4.37164
0.45 	 4.32305
0.5 	 4.27521
0.55 	 4.2281
0.6 	 4.18173
0.65 	 4.13608
0.7 	 4.09113
0.75 	 4.04687
0.8 	 4.00331
0.85 	 3.96041
0.9 	 3.91818
0.95 	 3.8766
1 	 3.83567
1.05 	 3.79537
1.1 	 3.7557
1.15 	 3.71664
1.2 	 3.67818
1.25 	 3.64032
1.3 	 3.60304
1.35 	 3.56634
1.4 	 3.53021
1.45 	 3.49464
1.5 	 3.45962
1.55 	 3.42514
1.6 	 3.39119
1.65 	 3.35777
1.7 	 3.32487
1.75 	 3.29248
1.8 	 3.26058
1.85 	 3.22919
1.9 	 3.19827
1.95 	 3.16784
2 	 3.13788
2.05 	 3.10838
2.1 	 3.07933
2.15 	 3.05074
2.2 	 3.02259
2.25 	 2.99488
2.3 	 2.96759
2.35 	 2.94073
2.4 	 2.91428
2.45 	 2.88824
2.5 	 2.8626
2.55 	 2.83736
2.6 	 2.81252
2.65 	 2.78805
2.7 	 2.76397
2.75 	 2.74026
2.8 	 2.71691
2.85 	 2.69393
2.9 	 2.6713
2.95 	 2.64902
3 	 2.62709
3.05 	 2.60549
3.1 	 2.58423
3.15 	 2.5633
3.2 	 2.5427
3.25 	 2.52241
3.3 	 2.50244
3.35 	 2.48277
3.4 	 2.46341
3.45 	 2.44435
3.5 	 2.42559
3.55 	 2.40711
3.6 	 2.38892
3.65 	 2.37102
3.7 	 2.35339
3.75 	 2.33603
3.8 	 2.31894
3.85 	 2.30211
3.9 	 2.28555
3.95 	 2.26924
4 	 2.25319
4.05 	 2.23738
4.1 	 2.22182
4.15 	 2.2065
4.2 	 2.19141
4.25 	 2.17656
4.3 	 2.16194
4.35 	 2.14755
4.4 	 2.13338
4.45 	 2.11943
4.5 	 2.10569
4.55 	 2.09217
4.6 	 2.07885
4.65 	 2.06574
4.7 	 2.05284
4.75 	 2.04013
4.8 	 2.02762
4.85 	 2.01531
4.9 	 2.00318
4.95 	 1.99124
5 	 1.97949
5.05 	 1.96792
5.1 	 1.95653
5.15 	 1.94532
5.2 	 1.93427
5.25 	 1.9234
5.3 	 1.9127
5.35 	 1.90216
5.4 	 1.89179
5.45 	 1.88158
5.5 	 1.87152
5.55 	 1.86162
5.6 	 1.85188
5.65 	 1.84228
5.7 	 1.83283
5.75 	 1.82353
5.8 	 1.81438
5.85 	 1.80536
5.9 	 1.79649
5.95 	 1.78775
6 	 1.77915
6.05 	 1.77068
6.1 	 1.76234
6.15 	 1.75413
6.2 	 1.74605
6.25 	 1.73809
6.3 	 1.73025
6.35 	 1.72254
6.4 	 1.71495
6.45 	 1.70747
6.5 	 1.70011
6.55 	 1.69287
6.6 	 1.68573
6.65 	 1.67871
6.7 	 1.67179
6.75 	 1.66498
6.8 	 1.65828
6.85 	 1.65168
6.9 	 1.64519
6.95 	 1.63879
7 	 1.63249
7.05 	 1.62629
7.1 	 1.62019
7.15 	 1.61418
7.2 	 1.60826
7.25 	 1.60244
7.3 	 1.5967
7.35 	 1.59106
7.4 	 1.5855
7.45 	 1.58003
7.5 	 1.57464
7.55 	 1.56933
7.6 	 1.56411
7.65 	 1.55897
7.7 	 1.55391
7.75 	 1.54892
7.8 	 1.54402
7.85 	 1.53919
7.9 	 1.53443
7.95 	 1.52975
8 	 1.52514
8.05 	 1.5206
8.1 	 1.51613
8.15 	 1.51174
8.2 	 1.5074
8.25 	 1.50314
8.3 	 1.49894
8.35 	 1.49481
8.4 	 1.49074
8.45 	 1.48674
8.5 	 1.48279
8.55 	 1.47891
8.6 	 1.47509
8.65 	 1.47132
8.7 	 1.46762
8.75 	 1.46397
8.8 	 1.46038
8.85 	 1.45684
8.9 	 1.45336
8.95 	 1.44993
9 	 1.44656
9.05 	 1.44324
9.1 	 1.43997
9.15 	 1.43675
9.2 	 1.43358
9.25 	 1.43045
9.3 	 1.42738
9.35 	 1.42436
9.4 	 1.42138
9.45 	 1.41845
9.5 	 1.41556
9.55 	 1.41272
9.6 	 1.40992
9.65 	 1.40716
9.7 	 1.40445
9.75 	 1.40178
9.8 	 1.39915
9.85 	 1.39656
9.9 	 1.39402
9.95 	 1.39151


#experimental values
#t 	 y 	 e
0.23 	 4.64 	 0.42
1.29 	 3.38 	 0.37
2.35 	 3.01 	 0.34
3.41 	 2.55 	 0.31
4.47 	 2.29 	 0.29
5.53 	 1.67 	 0.27
6.59 	 1.59 	 0.26
7.65 	 1.69 	 0.25
8.71 	 1.38 	 0.24
9.77 	 1.46 	 0.24
